Neural net babysteps
…
```r
library(tidyverse)
n <- 1000   # n observations
b <- 30     # intercept
a <- 5      # slope

set.seed(123)
(sim <- tibble(
  x = runif(n, min = -1, max = 1),
  y = b + a*x + rnorm(n)
))
```

```
## # A tibble: 1,000 x 2
##              x        y
##          <dbl>    <dbl>
##  1 -0.4248450  27.27388
##  2  0.5766103  31.88935
##  3 -0.1820462  30.11655
##  4  0.7660348  34.58124
##  5  0.8809346  32.89551
##  6 -0.9088870  25.36042
##  7  0.05621098 29.38511
##  8  0.7848381  31.85344
##  9  0.1028700  30.66447
## 10 -0.08677053 29.48694
## # … with 990 more rows
```
…
