Feature engineering
…
---
# Apply the blueprint
* We're going to go deeper with this, but first, let's look at what this blueprint is doing.

.g[could also use `juice` in this case, but `bake` is more general]

```r
rec %>% 
  prep %>% 
  bake(train) %>% 
  print(n = 5)
```

```
## # A tibble: 142,070 x 125
##      id attnd_dist_inst_id attnd_schl_inst_id enrl_grd partic_dist_inst_id
##   <dbl>              <dbl>              <dbl>    <dbl>               <dbl>
## 1     1               2142               1330        6                2142
## 2     3               1995               3400        8                1995
## 3     5               2053               1773        8                2053
## 4    10               1948                184        8                1948
## 5    12               1924                 84        8                1924
## # … with 142,065 more rows, and 120 more variables: partic_schl_inst_id <dbl>,
## #   ncessch <dbl>, lat <dbl>, lon <dbl>, score <dbl>, gndr_M <dbl>,
## #   ethnic_cd_B <dbl>, ethnic_cd_H <dbl>, ethnic_cd_I <dbl>, ethnic_cd_M <dbl>,
## #   ethnic_cd_P <dbl>, ethnic_cd_W <dbl>, tst_bnch_X2B <dbl>,
## #   tst_bnch_X3B <dbl>, tst_bnch_G4 <dbl>, tst_bnch_G6 <dbl>,
## #   tst_bnch_G7 <dbl>, tst_dt_X2.26.2018.0.00.00 <dbl>,
## #   tst_dt_X2.28.2018.0.00.00 <dbl>, tst_dt_X2.6.2018.0.00.00 <dbl>,
## #   tst_dt_X2.7.2018.0.00.00 <dbl>, tst_dt_X2.8.2018.0.00.00 <dbl>,
## #   tst_dt_X3.13.2018.0.00.00 <dbl>, tst_dt_X3.14.2018.0.00.00 <dbl>,
…
---

```r
rec %>% 
  prep %>% 
  bake(train)
```

```
## # A tibble: 142,070 x 56
##       id attnd_dist_inst_id attnd_schl_inst_id enrl_grd tst_dt             
##    <dbl>              <dbl>              <dbl>    <dbl> <dttm>             
##  1     1               2142               1330        6 2018-05-14 00:00:00
##  2     3               1995               3400        8 2018-05-01 00:00:00
##  3     5               2053               1773        8 2018-05-01 00:00:00
##  4    10               1948                184        8 2018-05-25 00:00:00
##  5    12               1924                 84        8 2018-05-10 00:00:00
##  6    13               1947               4396        8 2018-05-09 00:00:00
##  7    16               1945                168        8 2018-05-24 00:00:00
##  8    17               1966                208        8 2018-05-10 00:00:00
##  9    18               1965                201        8 2018-05-15 00:00:00
## 10    22               1945                168        8 2018-05-23 00:00:00
## # … with 142,060 more rows, and 51 more variables: partic_dist_inst_id <dbl>,
## #   partic_schl_inst_id <dbl>, ncessch <dbl>, lat <dbl>, lon <dbl>,
## #   score <dbl>, gndr_M <dbl>, ethnic_cd_B <dbl>, ethnic_cd_H <dbl>,
## #   ethnic_cd_I <dbl>, ethnic_cd_M <dbl>, ethnic_cd_P <dbl>, ethnic_cd_W <dbl>,
## #   tst_bnch_X2B <dbl>, tst_bnch_X3B <dbl>, tst_bnch_G4 <dbl>,
## #   tst_bnch_G6 <dbl>, tst_bnch_G7 <dbl>, migrant_ed_fg_Y <dbl>,
## #   ind_ed_fg_y <dbl>, ind_ed_fg_Y <dbl>, sp_ed_fg_Y <dbl>, tag_ed_fg_Y <dbl>,
## #   econ_dsvntg_Y <dbl>, ayp_lep_B <dbl>, ayp_lep_E <dbl>, ayp_lep_F <dbl>,
## #   ayp_lep_M <dbl>, ayp_lep_N <dbl>, ayp_lep_S <dbl>, ayp_lep_W <dbl>,
…
---
# NZV first

```r
recipe(score ~ ., ex_d) %>% 
  step_nzv(all_predictors()) %>% 
  step_dummy(all_predictors(), one_hot = TRUE) %>% 
  prep() %>% 
  juice()
```

```
## # A tibble: 100 x 6
##          score   f_a   f_b   f_c   f_d   f_e
##          <dbl> <dbl> <dbl> <dbl> <dbl> <dbl>
##  1  0.9245373      1     0     0     0     0
##  2 -0.8262785      0     1     0     0     0
##  3 -1.752678       0     1     0     0     0
##  4  1.285100       0     1     0     0     0
##  5  0.5608006      0     1     0     0     0
##  6  0.6350369      0     1     0     0     0
##  7 -0.09205992     0     0     1     0     0
##  8  1.401018       0     0     1     0     0
##  9  0.05359552     0     0     0     1     0
## 10 -0.8262854      0     0     0     1     0
## # … with 90 more rows
```

---
# NZV second

```r
recipe(score ~ ., ex_d) %>% 
  step_dummy(all_predictors(), one_hot = TRUE) %>% 
  step_nzv(all_predictors()) %>% 
  prep() %>% 
  juice()
```

```
## # A tibble: 100 x 3
##          score   f_b   f_e
##          <dbl> <dbl> <dbl>
##  1  0.9245373      0     0
##  2 -0.8262785      1     0
##  3 -1.752678       1     0
##  4  1.285100       1     0
##  5  0.5608006      1     0
##  6  0.6350369      1     0
##  7 -0.09205992     0     0
##  8  1.401018       0     0
##  9  0.05359552     0     0
## 10 -0.8262854      0     0
## # … with 90 more rows
```
…
```r
tmpfile <- tempfile()
download.file(
  "https://www.oregon.gov/ode/reports-and-data/students/Documents/fallmembershipreport_20192020.xlsx",
  tmpfile
)
sheets <- readxl::excel_sheets(tmpfile)
ode_schools <- readxl::read_xlsx(tmpfile,
                                 sheet = sheets[4])
ode_schools
```

```
## # A tibble: 1,459 x 33
##    `Attending District Institution ID` `District Name` `Attending School ID`
##                                  <dbl> <chr>                           <dbl>
##  1                                2063 Adel SD 21                        498
##  2                                2113 Adrian SD 61                      707
##  3                                2113 Adrian SD 61                      708
##  4                                1899 Alsea SD 7J                        17
##  5                                2252 Amity SD 4J                      1208
##  6                                2252 Amity SD 4J                      1210
##  7                                2252 Amity SD 4J                      1209
##  8                                2252 Amity SD 4J                      4505
##  9                                2111 Annex SD 29                       705
## 10                                2111 Annex SD 29                      2111
## # … with 1,449 more rows, and 30 more variables: `School Name` <chr>, `2018-19
## #   Total Enrollment` <chr>, `2019-20 Total Enrollment` <chr>, `2019-20
## #   American Indian/Alaska Native` <chr>, `2019-20 % American Indian/Alaska
## #   Native` <dbl>, `2019-20 Asian` <chr>, `2019-20 % Asian` <dbl>, `2019-20
## #   Native Hawaiian/ Pacific Islander` <chr>, `2019-20 % Native Hawaiian/
## #   Pacific Islander` <dbl>, `2019-20 Black/African American` <chr>, `2019-20 %
## #   Black/African American` <dbl>, `2019-20 Hispanic/ Latino` <chr>, `2019-20 %
## #   Hispanic/ Latino` <dbl>, `2019-20 White` <chr>, `2019-20 % White` <dbl>,
## #   `2019-20 Multiracial` <chr>, `2019-20 % Multiracial` <dbl>, `2019-20
…
---
# Pull percentage variables

```r
ethnicities <- ode_schools %>% 
  select(attnd_schl_inst_id = `Attending School ID`,
         sch_name = `School Name`,
         contains("%")) %>% 
  janitor::clean_names()
names(ethnicities) <- gsub("x2019_20_percent", "p", names(ethnicities))
ethnicities
```

```
## # A tibble: 1,459 x 9
##    attnd_schl_inst_id sch_name                  p_american_indian_alaska_native
##                 <dbl> <chr>                                               <dbl>
##  1                498 Adel Elementary School                        0.28571    
##  2                707 Adrian Elementary School                      0          
##  3                708 Adrian High School                            0.01124    
##  4                 17 Alsea Charter School                          0.01558    
##  5               1208 Amity Elementary School                       0.02402    
##  6               1210 Amity High School                             0.007940000
##  7               1209 Amity Middle School                           0.00485    
##  8               4505 Eola Hills Charter School                     0.0303     
##  9                705 Annex Charter School                          0          
## 10               2111 Annex SD 29                                   0          
## # … with 1,449 more rows, and 6 more variables: p_asian <dbl>,
## #   p_native_hawaiian_pacific_islander <dbl>, p_black_african_american <dbl>,
## #   p_hispanic_latino <dbl>, p_white <dbl>, p_multiracial <dbl>
```
…
* Note you may want to consider `step_novel` too for handling novel factor levels outside of the training data.

```r
rec <- recipe(score ~ ., train) %>% 
  step_unknown(all_nominal()) %>% 
  step_novel(all_nominal())

rec %>% 
  prep() %>% 
  bake(train) %>% 
  select(id, lang_cd)
```

```
## # A tibble: 142,182 x 2
##       id lang_cd
##    <dbl> <fct>  
##  1     1 unknown
##  2     3 unknown
##  3     5 unknown
##  4    10 unknown
##  5    12 unknown
##  6    13 unknown
##  7    16 unknown
##  8    17 unknown
##  9    18 unknown
## 10    22 unknown
## # … with 142,172 more rows
```
…
---
Rows 5/6 have been mean imputed for `Solar.R`

```r
airquality_rec <- recipe(Ozone ~ ., data = airquality) %>% 
  step_meanimpute(all_predictors()) 

airquality_rec %>% 
  prep() %>% 
  bake(airquality)
```

```
## # A tibble: 153 x 6
##    Solar.R  Wind  Temp Month   Day Ozone
##      <int> <dbl> <int> <int> <int> <int>
##  1     190   7.4    67     5     1    41
##  2     118   8      72     5     2    36
##  3     149  12.6    74     5     3    12
##  4     313  11.5    62     5     4    18
##  5     186  14.3    56     5     5    NA
##  6     186  14.9    66     5     6    28
##  7     299   8.6    65     5     7    23
##  8      99  13.8    59     5     8    19
##  9      19  20.1    61     5     9     8
## 10     194   8.6    69     5    10    NA
## # … with 143 more rows
```

---
Now they've been imputed using a `\(k\)` nearest neighbor model

```r
airquality_rec <- recipe(Ozone ~ ., data = airquality) %>% 
* step_knnimpute(all_predictors())

airquality_rec %>% 
  prep() %>% 
  bake(airquality)
```

```
## # A tibble: 153 x 6
##    Solar.R  Wind  Temp Month   Day Ozone
##      <int> <dbl> <int> <int> <int> <int>
##  1     190   7.4    67     5     1    41
##  2     118   8      72     5     2    36
##  3     149  12.6    74     5     3    12
##  4     313  11.5    62     5     4    18
##  5     159  14.3    56     5     5    NA
##  6     220  14.9    66     5     6    28
##  7     299   8.6    65     5     7    23
##  8      99  13.8    59     5     8    19
##  9      19  20.1    61     5     9     8
## 10     194   8.6    69     5    10    NA
## # … with 143 more rows
```

---
And finally with a bagged tree model

```r
airquality_rec <- recipe(Ozone ~ ., data = airquality) %>% 
* step_bagimpute(all_predictors())

airquality_rec %>% 
  prep() %>% 
  bake(airquality)
```

```
## # A tibble: 153 x 6
##    Solar.R  Wind  Temp Month   Day Ozone
##      <int> <dbl> <int> <int> <int> <int>
##  1     190   7.4    67     5     1    41
##  2     118   8      72     5     2    36
##  3     149  12.6    74     5     3    12
##  4     313  11.5    62     5     4    18
##  5     124  14.3    56     5     5    NA
##  6     249  14.9    66     5     6    28
##  7     299   8.6    65     5     7    23
##  8      99  13.8    59     5     8    19
##  9      19  20.1    61     5     9     8
## 10     194   8.6    69     5    10    NA
## # … with 143 more rows
```
…
```r
data(segmentationData, package = "caret")
seg <- segmentationData %>% 
  filter(Case == "Train") %>% 
  select(EqSphereAreaCh1, PerimCh1, Class) %>% 
  setNames(c("PredictorA", "PredictorB", "Class")) %>% 
  mutate(Class = factor(ifelse(Class == "PS", "One", "Two"))) %>% 
  as_tibble()
seg
```

```
## # A tibble: 1,009 x 3
##    PredictorA PredictorB Class
##         <dbl>      <dbl> <fct>
##  1  3278.726   154.8988  One  
##  2  1727.410    84.56460 Two  
##  3  1194.932   101.0911  One  
##  4  1027.222    68.71062 Two  
##  5  1035.608    73.40559 One  
##  6  1433.918    79.47569 One  
##  7   633.1043   67.36563 One  
##  8  1262.016    67.01432 Two  
##  9   985.2948   61.96803 Two  
## 10   893.0544   56.77622 Two  
## # … with 999 more rows
```
…
---
# Move to long

```r
lambda_d %>% 
  pivot_longer(-raw)
```

```
## # A tibble: 5,045 x 3
##          raw name        value
##        <dbl> <chr>       <dbl>
##  1 154.8988  -1      0.9935442
##  2 154.8988  -0.5    1.839304 
##  3 154.8988  0       5.042772 
##  4 154.8988  0.5    22.89167  
##  5 154.8988  1     153.8988   
##  6  84.56460 -1      0.9881747
##  7  84.56460 -0.5    1.782512 
##  8  84.56460 0       4.437516 
##  9  84.56460 0.5    16.39180  
## 10  84.56460 1      83.56460  
## # … with 5,035 more rows
```
…
```r
spline_rec <- recipe(Temp ~ ., airquality) %>%
  step_mutate(date = as.numeric(date)) %>% 
  step_ns(date) 

spline_d <- spline_rec %>% 
  prep() %>% 
  juice()
spline_d
```

```
## # A tibble: 153 x 8
##    Ozone Solar.R  Wind Month   Day  Temp  date_ns_1    date_ns_2
##    <int>   <int> <dbl> <int> <int> <int>      <dbl>        <dbl>
##  1    41     190   7.4     5     1    67 0           0          
##  2    36     118   8       5     2    72 0.01004389 -0.006695549
##  3    12     149  12.6     5     3    74 0.02008509 -0.01338702 
##  4    18     313  11.5     5     4    62 0.03012090 -0.02007035 
##  5    NA      NA  14.3     5     5    56 0.04014863 -0.02674146 
##  6    28      NA  14.9     5     6    66 0.05016559 -0.03339627 
##  7    23     299   8.6     5     7    65 0.06016907 -0.04003070 
##  8    19      99  13.8     5     8    59 0.07015639 -0.04664070 
##  9     8      19  20.1     5     9    61 0.08012484 -0.05322217 
## 10    NA     194   8.6     5    10    69 0.09007175 -0.05977105 
## # … with 143 more rows
```

---
# Fit model & make prediction

```r
fit <- lm(Temp ~ date_ns_1 + date_ns_2, data = spline_d)
spline_pred <- spline_d %>% 
  mutate(spline_pred = predict(fit, newdata = spline_d)) 

spline_pred
```

```
## # A tibble: 153 x 9
##    Ozone Solar.R  Wind Month   Day  Temp  date_ns_1    date_ns_2 spline_pred
##    <int>   <int> <dbl> <int> <int> <int>      <dbl>        <dbl>       <dbl>
##  1    41     190   7.4     5     1    67 0           0              60.74215
##  2    36     118   8       5     2    72 0.01004389 -0.006695549    61.17035
##  3    12     149  12.6     5     3    74 0.02008509 -0.01338702     61.59844
##  4    18     313  11.5     5     4    62 0.03012090 -0.02007035     62.02629
##  5    NA      NA  14.3     5     5    56 0.04014863 -0.02674146     62.45378
##  6    28      NA  14.9     5     6    66 0.05016559 -0.03339627     62.88078
##  7    23     299   8.6     5     7    65 0.06016907 -0.04003070     63.30719
##  8    19      99  13.8     5     8    59 0.07015639 -0.04664070     63.73289
##  9     8      19  20.1     5     9    61 0.08012484 -0.05322217     64.15774
## 10    NA     194   8.6     5    10    69 0.09007175 -0.05977105     64.58163
## # … with 143 more rows
```
…
---
# Which variable went to which?

```r
rec80 %>% 
  prep() %>% 
  tidy(n = 8)
```

```
## # A tibble: 6,561 x 4
##    terms                                     value component id       
##    <chr>                                     <dbl> <chr>     <chr>    
##  1 enrl_grd                            2.463256e-4 PC1       pca_0qyqG
##  2 lat                                -1.906570e-3 PC1       pca_0qyqG
##  3 lon                                 2.469739e-6 PC1       pca_0qyqG
##  4 p_american_indian_alaska_native    -1.088232e-4 PC1       pca_0qyqG
##  5 p_asian                            -1.601666e-3 PC1       pca_0qyqG
##  6 p_native_hawaiian_pacific_islander -1.370171e-3 PC1       pca_0qyqG
##  7 p_black_african_american           -1.346808e-3 PC1       pca_0qyqG
##  8 p_hispanic_latino                  -1.610054e-3 PC1       pca_0qyqG
##  9 p_white                             2.521674e-3 PC1       pca_0qyqG
## 10 p_multiracial                      -2.328528e-4 PC1       pca_0qyqG
## # … with 6,551 more rows
```
…
---
### How many PCAs to retain 95% of the variance?

```r
rec %>% 
  step_pca(all_numeric(), -all_outcomes(), -has_role("id vars"), 
           threshold = .95) %>% 
  prep() %>% 
  juice() %>% 
  select(id, starts_with("PC"), score)
```

```
## # A tibble: 142,182 x 15
##       id     PC01       PC02        PC03       PC04        PC05        PC06
##    <dbl>    <dbl>      <dbl>       <dbl>      <dbl>       <dbl>       <dbl>
##  1     1 3.914482 -3.664709   1.430319    0.2294304  1.676001   -0.1837922 
##  2     3 4.037100  2.238739  -0.5184134  -1.189169   1.810062    0.01495929
##  3     5 3.910153 -1.511452   2.821935   -1.904962  -0.2841967   1.752201  
##  4    10 4.215736  0.6414991 -0.2368919  -1.580241   0.08755089 -0.3546539 
##  5    12 3.982149 -0.8362054 -0.2884276  -1.466640   0.5444169  -0.2088762 
##  6    13 4.169854  1.386466   0.3387305  -1.788151  -0.2344790  -0.6374840 
##  7    16 4.171618  0.7608162 -0.6723416  -1.610625   0.1316018  -0.1863081 
##  8    17 4.186281  1.693117  -0.3119453  -1.244764   1.906787    0.4949888 
##  9    18 4.184888  1.318026  -0.09127542 -1.184658   2.141953    0.7879646 
## 10    22 4.158239  0.7536091 -0.6555783  -1.611382   0.1306890  -0.1919451 
## # … with 142,172 more rows, and 8 more variables: PC07 <dbl>, PC08 <dbl>,
## #   PC09 <dbl>, PC10 <dbl>, PC11 <dbl>, PC12 <dbl>, PC13 <dbl>, score <dbl>
```
…
