Decision Trees
…
```
## # A tibble: 0 x 3
## # … with 3 variables: game_session <chr>, installation_id <chr>, n <int>
```

```r
train %>%
  count(game_session, installation_id) %>%
  filter(n > 1)
```

```
## # A tibble: 517 x 3
##    game_session     installation_id     n
##    <chr>            <chr>           <int>
##  1 0132ad94d2c5e234 00e17272           90
##  2 01a1a7d058854c47 00a803f0           19
##  3 01d44d1b32c3da7f 00691033           56
##  4 021462bb2394e97b 00691033          126
##  5 02546c6aa91244cd 00cef781           90
##  6 02d9c0f8b9d25cf8 00fa8681           24
##  7 031f9b0a80aa39aa 00e536bf           83
##  8 0334295374a6db00 00d8a6f2          125
##  9 0336db4dee65ad4b 0006a69f          131
## 10 034ed83ac5546c2f 00129856           52
## # … with 507 more rows
```
…
---
# Select only vars in test data

```r
model_set <- k_train %>%
  select(event_count, event_code, game_time, title, world, 
         accuracy_group) %>%
  drop_na(accuracy_group)
model_set
```

```
## # A tibble: 3,689 x 6
##    event_count event_code game_time title                        world      
##          <dbl>      <dbl>     <dbl> <chr>                        <chr>      
##  1           1       2000         0 Mushroom Sorter (Assessment) TREETOPCITY
##  2           2       2025        37 Mushroom Sorter (Assessment) TREETOPCITY
##  3           3       3010        37 Mushroom Sorter (Assessment) TREETOPCITY
##  4           4       3110      3901 Mushroom Sorter (Assessment) TREETOPCITY
##  5           5       3010      3901 Mushroom Sorter (Assessment) TREETOPCITY
##  6           6       4025      6475 Mushroom Sorter (Assessment) TREETOPCITY
##  7           7       3110      6475 Mushroom Sorter (Assessment) TREETOPCITY
##  8           8       3021      6475 Mushroom Sorter (Assessment) TREETOPCITY
##  9           9       3121      7084 Mushroom Sorter (Assessment) TREETOPCITY
## 10          10       4025      8400 Mushroom Sorter (Assessment) TREETOPCITY
## # … with 3,679 more rows, and 1 more variable: accuracy_group <dbl>
```
…
---
# Set grid

```r
grd <- grid_regular(cost_complexity(), min_n(), levels = c(10, 5))
grd
```

```
## # A tibble: 50 x 2
##    cost_complexity min_n
##              <dbl> <int>
##  1    0.0000000001     2
##  2    0.000000001      2
##  3    0.00000001       2
##  4    0.0000001        2
##  5    0.000001         2
##  6    0.00001          2
##  7    0.0001           2
##  8    0.001            2
##  9    0.01             2
## 10    0.1              2
## # … with 40 more rows
```
…
