Bagging
…
---
# Create splits

```r
library(tidymodels)
set.seed(4520)
splt <- initial_split(full_train)
train <- training(splt)
cv <- vfold_cv(train)
train
```

```
## # A tibble: 37,500 x 6
##    event_count event_code game_time title                         world    
##          <dbl>      <dbl>     <dbl> <chr>                         <chr>    
##  1           1       2000         0 Welcome to Lost Lagoon!       NONE     
##  2           1       2000         0 Sandcastle Builder (Activity) MAGMAPEAK
##  3           2       3010        53 Sandcastle Builder (Activity) MAGMAPEAK
##  4           3       3110      6972 Sandcastle Builder (Activity) MAGMAPEAK
##  5           4       4070      9991 Sandcastle Builder (Activity) MAGMAPEAK
##  6           6       4070     11255 Sandcastle Builder (Activity) MAGMAPEAK
##  7           7       4070     11689 Sandcastle Builder (Activity) MAGMAPEAK
##  8           9       4070     12672 Sandcastle Builder (Activity) MAGMAPEAK
##  9          10       4070     13389 Sandcastle Builder (Activity) MAGMAPEAK
## 10          11       4070     13639 Sandcastle Builder (Activity) MAGMAPEAK
## # … with 37,490 more rows, and 1 more variable: accuracy_group <ord>
```
…
---
# Extract predictions
We now need to compare the OOB class probabilities with the observed classes.

First, extract the OOB probabilities. Note that in the below I'm transforming the matrix into a tibble.

```r
probs <- as_tibble(bt_ranger_fit2$fit$predictions)
probs
```

```
## # A tibble: 2,801 x 4
##           `0`   `1`        `2`       `3`
##         <dbl> <dbl>      <dbl>     <dbl>
##  1 0.2652617      0 0.2813317  0.4534066
##  2 0.3952071      0 0.2324664  0.3723265
##  3 0.04545455     0 0.06818182 0.8863636
##  4 0.1            0 0.075      0.825    
##  5 0.1041667      0 0.3541667  0.5416667
##  6 0.2894737      0 0.5        0.2105263
##  7 0.3260870      0 0.2173913  0.4565217
##  8 0.2352941      0 0.3529412  0.4117647
##  9 0.4            0 0.35       0.25     
## 10 0.02631579     0 0.2368421  0.7368421
## # … with 2,791 more rows
```

---
Next add the observed class to this tibble. **Note:** **{ranger}** only fits to cases with observations on the outcome. So we have to eliminate missing data when we add it in. 

```r
probs <- probs %>% 
  mutate(observed = na.omit(prepped_d$accuracy_group))
probs
```

```
## # A tibble: 2,801 x 5
##           `0`   `1`        `2`       `3` observed
##         <dbl> <dbl>      <dbl>     <dbl> <ord>   
##  1 0.2652617      0 0.2813317  0.4534066 3       
##  2 0.3952071      0 0.2324664  0.3723265 3       
##  3 0.04545455     0 0.06818182 0.8863636 3       
##  4 0.1            0 0.075      0.825     3       
##  5 0.1041667      0 0.3541667  0.5416667 3       
##  6 0.2894737      0 0.5        0.2105263 3       
##  7 0.3260870      0 0.2173913  0.4565217 3       
##  8 0.2352941      0 0.3529412  0.4117647 3       
##  9 0.4            0 0.35       0.25      3       
## 10 0.02631579     0 0.2368421  0.7368421 3       
## # … with 2,791 more rows
```
…
