Gradient Boosting (with trees)
…
---

```r
# initialize
grad <- estimate_gradient(tibble(a = 0, b = 0))

# loop through
for(i in 2:50) {
  grad[i, ] <- estimate_gradient(grad[i - 1, ])
}
grad
```

```
## # A tibble: 50 x 3
##           a         b      mse
##       <dbl>     <dbl>    <dbl>
##  1 1.010955 0.2681521 34589.27
##  2 1.821146 0.4856731 28248.48
##  3 2.470456 0.6620702 24169.29
##  4 2.990842 0.8050772 21544.96
##  5 3.407912 0.9209825 19856.56
##  6 3.742184 1.014897  18770.26
##  7 4.010101 1.090974  18071.32
##  8 4.224840 1.152586  17621.61
##  9 4.396959 1.202471  17332.24
## 10 4.534919 1.242853  17146.04
## # … with 40 more rows
```
…
