Gradient Boosting (with trees)
…
---
# Transform a bit

```r
log_def <- fit_default_xgb$evaluation_log %>% 
  pivot_longer(-iter,
               names_to = c("set", "metric", "measure"),
               names_sep = "_") %>% 
  pivot_wider(names_from = "measure",
              values_from = "value")
log_def
```

```
## # A tibble: 80 x 5
##     iter set   metric      mean        std
##    <dbl> <chr> <chr>      <dbl>      <dbl>
##  1     1 train rmse   1752.994  0.3408002 
##  2     1 test  rmse   1753.043  4.249717  
##  3     2 train rmse   1229.434  0.2385699 
##  4     2 test  rmse   1229.466  3.989493  
##  5     3 train rmse    863.5794 0.1500347 
##  6     3 test  rmse    863.6181 3.776024  
##  7     4 train rmse    608.2821 0.09828687
##  8     4 test  rmse    608.2528 3.426655  
##  9     5 train rmse    430.8838 0.08948578
## 10     5 test  rmse    430.9820 3.198254  
## # … with 70 more rows
```
…
